{
  "type": "service_account",
  "project_id": "neutrios",
  "private_key_id": "3c12cfa853c62d4648ce2fcb3e1073dadb2d465e",
  "private_key": "-----BEGIN PRIVATE KEY-----\nMIIEvQIBADANBgkqhkiG9w0BAQEFAASCBKcwggSjAgEAAoIBAQDPyDn+ZQBLec/8\nWUuG0HtUFSLo5hfeVHG+hQ2Jb2jbJqingXxT1dg4QOtSTGW1Cie+RPZ1/P+X8AZV\ndVzXbbmY8gGIA+hnq9bXb72QyvNqVCPae+JbhYBzg034t6CNCGbQHj24JtDpABUi\nM5rw0dboQiwdj5yP4V4BytlfF8cWe2DYyUBgh0sTBdHZQvkp4r+p12JJp9rZcrMY\nxyZ4Xi12lNYTinOJE20OBf8k5QFqUeAQDtntd7W9DaBqlwf0vdR9MWAlL5gMoA8F\n7MiOXZWX5k5ijlhW7tYqMAVdKCZBPO7ELx4zQ9V1sDZNP4VrZiYc6wNPJCf/CJvE\nQPyjfMYrAgMBAAECggEAXqAa+SXaKoVBGPU5lh3f7HzrtxECkbf3TQKfFZXtNNC4\nQgCQNEXRAF1gTcyJDReg3d/eNgGQDQu8drLKIznPKj4cQGs3Le9uGhLDS+uBS00i\nPt/oSDHWO8Tyf3Bw54mJ+QGsre7PeS0Wcsr5pu6JZqCsIpJChKvn+fz9XXcgrbWT\nfN2ztptJ4wwH+kZWfBF14yhYLp6RaMtjzrDTcaUwnjA2qZ4McUoqSuZEWGF/RPX6\nm+TFpRpmtkX5OUEnAuDzn7phtJsbOuFDAojiqeJ4MHIQiA5v4paZKLqoKEW5G7YU\nOrYa+nRceCrF6ZeWNxruieTIUsMAqwkria6JuR9yYQKBgQD9IVPClKLw/ror1dIK\n9Z2NXjkDWk28IMdNSGl/IgwNLOGKPNoCxnWUt2rHmZjp2BkMBhIV0opqSlToWCCk\nwx02AjaxUK8P4nyd3KOr1ZTO8Ziloy3mutoTEphFzAHwjLnwO7yvEkLANvZ+khiI\ntui3b81E4xC3ci34gVMC/EfuEwKBgQDSI0iKgWXHsfK6DCuRQaJhnrbSbfKOgc1F\n7C90b2DgfqrDVwSD6RtItbUTW/f8RioUMuO5Xg2QeRSASqQV3C4W/IyAwtwsgct9\nngqkPNCDGoZC6oM3iDqbigQxYXFnfjTw1jTeUjFHpB3MNe7XYzfbFkfOLJMtu3Kb\nRvXWUTvqiQKBgQCBUySjFiOFcu8U9EJC3SfokQoZ32o1wp1wq51SmceEd7inUt2j\na1epamhAoAXS+1gYn4Vf5thW47Ern9LVuuXSsSDWSL2YJQO7930bjpxfemmdvpf1\n+OLvuaFYj5kyGAPra+nDnFXENJCNLAEi4ChXh+Rc3JGu18QK4a/Sp6fsRwKBgBrG\n0jSL/osuuq5IZLjSsz1bOxKfXfwYwC57xSRCGQciPOI9UV75sjdWqCc6XeQwkKYY\nQfpZ6MKTGzCp0jTS5LCbJ9A0hFfLhkGQhOyerzc1hww509ScsFMniBc+wnOcmmRh\n90SpFox5di6SZMffZbuuICI+fdai/xyYMzVHDqp5AoGAdhquyOYoF6uBtNPKG7sW\njPG8j7Tnb8hyEcVHkB8qHPhqCQM8UkWPEILHnnI/rJQZo0/7BiRe908U0K8d+eYq\nVfWZ2WmUn/DMd1X8OCoxxee9xFcu6sO7W1u+X6DKjxDwo5pFUw1Fp7fnM0MU7b9/\nigXvaMNX/eEZ5C4JoIkSGWw=\n-----END PRIVATE KEY-----\n",
  "client_email": "admin-bucket@neutrios.iam.gserviceaccount.com",
  "client_id": "110125355092383096255",
  "auth_uri": "https://accounts.google.com/o/oauth2/auth",
  "token_uri": "https://oauth2.googleapis.com/token",
  "auth_provider_x509_cert_url": "https://www.googleapis.com/oauth2/v1/certs",
  "client_x509_cert_url": "https://www.googleapis.com/robot/v1/metadata/x509/admin-bucket%40neutrios.iam.gserviceaccount.com"
}
