FirstName,Surname,Email,PhoneNumber,Password,Gender,Birthdate,BirthPlace,Status,Nationality,IdentityCardNumber,IdentityCardExpiryDate,TaxIdentificationNumber,TaxIdentificationNumberExpiryDate,InvitedBy,ImageAttachmentUri,IdentityCardAttachmentUri,TaxIdentificationNumberAttachmentUri,Pin,Balance
super,admin,admin@paxel.co,+6287777777777,P@ssw0rd,,,,Active,,,,,,,,,,,0
benhil,ph,ph.benhil@paxel.co,+6287777777778,AdminPH1,,,,Active,,,,,,,,,,,0
joglo,ph,ph.joglo@paxel.co,+6287777777779,AdminPH2,,,,Active,,,,,,,,,,,0
lebakbulus,ph,ph.lebakbulus@paxel.co,+6287777777771,AdminPH3,,,,Active,,,,,,,,,,,0
rawamangun,ph,ph.rawamangun@paxel.co,+6287777777772,AdminPH4,,,,Active,,,,,,,,,,,0
flash,cgkutr,cgkutr.flash@paxel.co,+6287777777773,AdminPH5,,,,Active,,,,,,,,,,,0
